neuromorphic.vcd
$date
	Sat Nov 23 21:48:38 2024
$end
$version
	Icarus Verilog
$end
$timescale
	1s
$end
$scope module testbench $end
$var wire 32 ! wvr_out_r9 [31:0] $end
$var wire 32 " wvr_out_r8 [31:0] $end
$var wire 32 # wvr_out_r7 [31:0] $end
$var wire 32 $ wvr_out_r6 [31:0] $end
$var wire 32 % wvr_out_r5 [31:0] $end
$var wire 32 & wvr_out_r4 [31:0] $end
$var wire 32 ' wvr_out_r3 [31:0] $end
$var wire 32 ( wvr_out_r2 [31:0] $end
$var wire 32 ) wvr_out_r16 [31:0] $end
$var wire 32 * wvr_out_r15 [31:0] $end
$var wire 32 + wvr_out_r14 [31:0] $end
$var wire 32 , wvr_out_r13 [31:0] $end
$var wire 32 - wvr_out_r12 [31:0] $end
$var wire 32 . wvr_out_r11 [31:0] $end
$var wire 32 / wvr_out_r10 [31:0] $end
$var wire 32 0 wvr_out_r1 [31:0] $end
$var wire 32 1 vtr_out_0 [31:0] $end
$var wire 512 2 vector [511:0] $end
$var wire 32 3 svr_out_r9 [31:0] $end
$var wire 32 4 svr_out_r8 [31:0] $end
$var wire 32 5 svr_out_r7 [31:0] $end
$var wire 32 6 svr_out_r6 [31:0] $end
$var wire 32 7 svr_out_r5 [31:0] $end
$var wire 32 8 svr_out_r4 [31:0] $end
$var wire 32 9 svr_out_r3 [31:0] $end
$var wire 32 : svr_out_r2 [31:0] $end
$var wire 32 ; svr_out_r16 [31:0] $end
$var wire 32 < svr_out_r15 [31:0] $end
$var wire 32 = svr_out_r14 [31:0] $end
$var wire 32 > svr_out_r13 [31:0] $end
$var wire 32 ? svr_out_r12 [31:0] $end
$var wire 32 @ svr_out_r11 [31:0] $end
$var wire 32 A svr_out_r10 [31:0] $end
$var wire 32 B svr_out_r1 [31:0] $end
$var wire 32 C rpr_out_0 [31:0] $end
$var wire 32 D ntr_out_3 [31:0] $end
$var wire 32 E ntr_out_2 [31:0] $end
$var wire 32 F ntr_out_1 [31:0] $end
$var wire 32 G ntr_out_0 [31:0] $end
$var wire 32 H nsr_out_r9 [31:0] $end
$var wire 32 I nsr_out_r8 [31:0] $end
$var wire 32 J nsr_out_r7 [31:0] $end
$var wire 32 K nsr_out_r6 [31:0] $end
$var wire 32 L nsr_out_r5 [31:0] $end
$var wire 32 M nsr_out_r4 [31:0] $end
$var wire 32 N nsr_out_r3 [31:0] $end
$var wire 32 O nsr_out_r2 [31:0] $end
$var wire 32 P nsr_out_r16 [31:0] $end
$var wire 32 Q nsr_out_r15 [31:0] $end
$var wire 32 R nsr_out_r14 [31:0] $end
$var wire 32 S nsr_out_r13 [31:0] $end
$var wire 32 T nsr_out_r12 [31:0] $end
$var wire 32 U nsr_out_r11 [31:0] $end
$var wire 32 V nsr_out_r10 [31:0] $end
$var wire 32 W nsr_out_r1 [31:0] $end
$var wire 512 X W [511:0] $end
$var wire 512 Y S [511:0] $end
$var wire 512 Z Cur4 [511:0] $end
$var wire 512 [ Cur3 [511:0] $end
$var wire 512 \ Cur2 [511:0] $end
$var wire 512 ] Cur1 [511:0] $end
$var reg 9 ^ DA [8:0] $end
$var reg 9 _ DB [8:0] $end
$var reg 9 ` DC [8:0] $end
$var reg 1 a clk $end
$var reg 512 b rdata [511:0] $end
$var reg 1 c reset $end
$scope module nacc $end
$var wire 1 a clk $end
$var wire 1 c reset $end
$var wire 512 d W [511:0] $end
$var wire 512 e S [511:0] $end
$var wire 512 f Cur_Input [511:0] $end
$var reg 512 g Cur_Output [511:0] $end
$var integer 32 h j [31:0] $end
$upscope $end
$scope module narray $end
$var wire 1 a clk $end
$var wire 1 c reset $end
$var wire 512 i W [511:0] $end
$var wire 512 j S [511:0] $end
$var wire 512 k Cur_Input [511:0] $end
$var reg 512 l Cur_Output [511:0] $end
$var integer 32 m i [31:0] $end
$var integer 32 n j [31:0] $end
$upscope $end
$scope module nsr $end
$var wire 9 o A [8:0] $end
$var wire 1 a clk $end
$var wire 1 c reset $end
$var wire 512 p D [511:0] $end
$var reg 512 q Cur [511:0] $end
$var reg 32 r nsr_out_r1 [31:0] $end
$var reg 32 s nsr_out_r10 [31:0] $end
$var reg 32 t nsr_out_r11 [31:0] $end
$var reg 32 u nsr_out_r12 [31:0] $end
$var reg 32 v nsr_out_r13 [31:0] $end
$var reg 32 w nsr_out_r14 [31:0] $end
$var reg 32 x nsr_out_r15 [31:0] $end
$var reg 32 y nsr_out_r16 [31:0] $end
$var reg 32 z nsr_out_r2 [31:0] $end
$var reg 32 { nsr_out_r3 [31:0] $end
$var reg 32 | nsr_out_r4 [31:0] $end
$var reg 32 } nsr_out_r5 [31:0] $end
$var reg 32 ~ nsr_out_r6 [31:0] $end
$var reg 32 !" nsr_out_r7 [31:0] $end
$var reg 32 "" nsr_out_r8 [31:0] $end
$var reg 32 #" nsr_out_r9 [31:0] $end
$var reg 32 $" ntr_out_0 [31:0] $end
$var reg 32 %" ntr_out_1 [31:0] $end
$var reg 32 &" ntr_out_2 [31:0] $end
$var reg 32 '" ntr_out_3 [31:0] $end
$var reg 32 (" rpr [31:0] $end
$var reg 32 )" rpr_out_0 [31:0] $end
$var reg 32 *" vtr [31:0] $end
$var reg 32 +" vtr_out_0 [31:0] $end
$var integer 32 ," i [31:0] $end
$var integer 32 -" j [31:0] $end
$var real 1 ." temp $end
$upscope $end
$scope module sacc $end
$var wire 512 /" Cur_Input [511:0] $end
$var wire 1 a clk $end
$var wire 1 c reset $end
$var wire 512 0" W [511:0] $end
$var wire 512 1" S [511:0] $end
$var reg 512 2" Cur_Output [511:0] $end
$var integer 32 3" i [31:0] $end
$upscope $end
$scope module svr $end
$var wire 9 4" A [8:0] $end
$var wire 1 a clk $end
$var wire 1 c reset $end
$var wire 512 5" D [511:0] $end
$var reg 512 6" S [511:0] $end
$var reg 32 7" svr_out_r1 [31:0] $end
$var reg 32 8" svr_out_r10 [31:0] $end
$var reg 32 9" svr_out_r11 [31:0] $end
$var reg 32 :" svr_out_r12 [31:0] $end
$var reg 32 ;" svr_out_r13 [31:0] $end
$var reg 32 <" svr_out_r14 [31:0] $end
$var reg 32 =" svr_out_r15 [31:0] $end
$var reg 32 >" svr_out_r16 [31:0] $end
$var reg 32 ?" svr_out_r2 [31:0] $end
$var reg 32 @" svr_out_r3 [31:0] $end
$var reg 32 A" svr_out_r4 [31:0] $end
$var reg 32 B" svr_out_r5 [31:0] $end
$var reg 32 C" svr_out_r6 [31:0] $end
$var reg 32 D" svr_out_r7 [31:0] $end
$var reg 32 E" svr_out_r8 [31:0] $end
$var reg 32 F" svr_out_r9 [31:0] $end
$var integer 32 G" i [31:0] $end
$upscope $end
$scope module vlsu $end
$var wire 1 a clk $end
$var wire 512 H" rdata [511:0] $end
$var reg 512 I" vector [511:0] $end
$upscope $end
$scope module wvr $end
$var wire 9 J" A [8:0] $end
$var wire 512 K" D [511:0] $end
$var wire 1 a clk $end
$var wire 1 c reset $end
$var reg 512 L" W [511:0] $end
$var reg 32 M" wvr_out_r1 [31:0] $end
$var reg 32 N" wvr_out_r10 [31:0] $end
$var reg 32 O" wvr_out_r11 [31:0] $end
$var reg 32 P" wvr_out_r12 [31:0] $end
$var reg 32 Q" wvr_out_r13 [31:0] $end
$var reg 32 R" wvr_out_r14 [31:0] $end
$var reg 32 S" wvr_out_r15 [31:0] $end
$var reg 32 T" wvr_out_r16 [31:0] $end
$var reg 32 U" wvr_out_r2 [31:0] $end
$var reg 32 V" wvr_out_r3 [31:0] $end
$var reg 32 W" wvr_out_r4 [31:0] $end
$var reg 32 X" wvr_out_r5 [31:0] $end
$var reg 32 Y" wvr_out_r6 [31:0] $end
$var reg 32 Z" wvr_out_r7 [31:0] $end
$var reg 32 [" wvr_out_r8 [31:0] $end
$var reg 32 \" wvr_out_r9 [31:0] $end
$var integer 32 ]" i [31:0] $end
$upscope $end
$upscope $end
$enddefinitions $end
$comment Show the parameter values. $end
$dumpall
$end
#0
$dumpvars
b10000 ]"
bx \"
bx ["
bx Z"
bx Y"
bx X"
bx W"
bx V"
bx U"
bx T"
bx S"
bx R"
bx Q"
bx P"
bx O"
bx N"
bx M"
b0 L"
bx K"
b0xxxxxxxx J"
bx I"
b0 H"
b10000 G"
bx F"
bx E"
bx D"
bx C"
bx B"
bx A"
bx @"
bx ?"
bx >"
bx ="
bx <"
bx ;"
bx :"
bx 9"
bx 8"
bx 7"
b0 6"
bx 5"
b0xxxxxxxx 4"
bx 3"
b0 2"
b0 1"
b0 0"
b0 /"
r0 ."
bx -"
b10000 ,"
bx +"
b0 *"
bx )"
b0 ("
bx '"
bx &"
bx %"
bx $"
bx #"
bx ""
bx !"
bx ~
bx }
bx |
bx {
bx z
bx y
bx x
bx w
bx v
bx u
bx t
bx s
bx r
b0 q
bx p
b0xxxxxxxx o
bx n
bx m
b0 l
b0 k
b0 j
b0 i
bx h
b0 g
b0 f
b0 e
b0 d
1c
b0 b
0a
b0xxxxxxxx `
b0xxxxxxxx _
b0xxxxxxxx ^
b0 ]
b0 \
b0 [
b0 Z
b0 Y
b0 X
bx W
bx V
bx U
bx T
bx S
bx R
bx Q
bx P
bx O
bx N
bx M
bx L
bx K
bx J
bx I
bx H
bx G
bx F
bx E
bx D
bx C
bx B
bx A
bx @
bx ?
bx >
bx =
bx <
bx ;
bx :
bx 9
bx 8
bx 7
bx 6
bx 5
bx 4
bx 3
bx 2
bx 1
bx 0
bx /
bx .
bx -
bx ,
bx +
bx *
bx )
bx (
bx '
bx &
bx %
bx $
bx #
bx "
bx !
$end
#5
b0 P
b0 y
b0 Q
b0 x
b0 R
b0 w
b0 S
b0 v
b0 T
b0 u
b0 U
b0 t
b0 V
b0 s
b0 H
b0 #"
b0 I
b0 ""
b0 J
b0 !"
b0 K
b0 ~
b0 L
b0 }
b0 M
b0 |
b0 N
b0 {
b0 O
b0 z
b0 W
b0 r
b0 ;
b0 >"
b0 <
b0 ="
b0 =
b0 <"
b0 >
b0 ;"
b0 ?
b0 :"
b0 @
b0 9"
b0 A
b0 8"
b0 3
b0 F"
b0 4
b0 E"
b0 5
b0 D"
b0 6
b0 C"
b0 7
b0 B"
b0 8
b0 A"
b0 9
b0 @"
b0 :
b0 ?"
b0 B
b0 7"
b0 )
b0 T"
b0 *
b0 S"
b0 +
b0 R"
b0 ,
b0 Q"
b0 -
b0 P"
b0 .
b0 O"
b0 /
b0 N"
b0 !
b0 \"
b0 "
b0 ["
b0 #
b0 Z"
b0 $
b0 Y"
b0 %
b0 X"
b0 &
b0 W"
b0 '
b0 V"
b0 (
b0 U"
b0 0
b0 M"
b0 2
b0 p
b0 5"
b0 I"
b0 K"
b0 D
b0 '"
b0 E
b0 &"
b0 F
b0 %"
b0 G
b0 $"
b0 1
b0 +"
b0 C
b0 )"
b10000 ,"
b10000 G"
b10000 ]"
1a
#10
0a
#15
b10000 ]"
b10000 G"
b10000 ,"
1a
#20
0a
#25
b10000 ,"
b10000 G"
b10000 ]"
1a
#30
0a
#35
b10000 ]"
b10000 G"
b10000 ,"
1a
#40
0a
#45
b10000 ,"
b10000 G"
b10000 ]"
1a
#50
0a
b11111111111111111111111111111111111111111111111111111111111111111111111111111111111111111111111111111111111111111111111111111111111111111111111111111111111111111111111111111111111111111111111111111111111111111111111111111111111111111111111111111111111111111111111111111111111111111111111111111111111111111111111111111111111111111111111111111111111111111111111111111111111111111111111111111111111111111111111111111111111111111111111111111111111111111111111111111111111111111111111100010001000100010001001000110100 b
b11111111111111111111111111111111111111111111111111111111111111111111111111111111111111111111111111111111111111111111111111111111111111111111111111111111111111111111111111111111111111111111111111111111111111111111111111111111111111111111111111111111111111111111111111111111111111111111111111111111111111111111111111111111111111111111111111111111111111111111111111111111111111111111111111111111111111111111111111111111111111111111111111111111111111111111111111111111111111111111111100010001000100010001001000110100 H"
b1 `
b1 J"
0c
#55
b11111111111111111111111111111111111111111111111111111111111111111111111111111111111111111111111111111111111111111111111111111111111111111111111111111111111111111111111111111111111111111111111111111111111111111111111111111111111111111111111111111111111111111111111111111111111111111111111111111111111111111111111111111111111111111111111111111111111111111111111111111111111111111111111111111111111111111111111111111111111111111111111111111111111111111111111111111111111111111111111100010001000100010001001000110100 2
b11111111111111111111111111111111111111111111111111111111111111111111111111111111111111111111111111111111111111111111111111111111111111111111111111111111111111111111111111111111111111111111111111111111111111111111111111111111111111111111111111111111111111111111111111111111111111111111111111111111111111111111111111111111111111111111111111111111111111111111111111111111111111111111111111111111111111111111111111111111111111111111111111111111111111111111111111111111111111111111111100010001000100010001001000110100 p
b11111111111111111111111111111111111111111111111111111111111111111111111111111111111111111111111111111111111111111111111111111111111111111111111111111111111111111111111111111111111111111111111111111111111111111111111111111111111111111111111111111111111111111111111111111111111111111111111111111111111111111111111111111111111111111111111111111111111111111111111111111111111111111111111111111111111111111111111111111111111111111111111111111111111111111111111111111111111111111111111100010001000100010001001000110100 5"
b11111111111111111111111111111111111111111111111111111111111111111111111111111111111111111111111111111111111111111111111111111111111111111111111111111111111111111111111111111111111111111111111111111111111111111111111111111111111111111111111111111111111111111111111111111111111111111111111111111111111111111111111111111111111111111111111111111111111111111111111111111111111111111111111111111111111111111111111111111111111111111111111111111111111111111111111111111111111111111111111100010001000100010001001000110100 I"
b11111111111111111111111111111111111111111111111111111111111111111111111111111111111111111111111111111111111111111111111111111111111111111111111111111111111111111111111111111111111111111111111111111111111111111111111111111111111111111111111111111111111111111111111111111111111111111111111111111111111111111111111111111111111111111111111111111111111111111111111111111111111111111111111111111111111111111111111111111111111111111111111111111111111111111111111111111111111111111111111100010001000100010001001000110100 K"
b10000000 3"
b10000000 h
b10000000 n
b10000 m
1a
#60
0a
#65
b10000000 n
b10000 m
b10000000 h
b10000000 3"
1a
#70
0a
#75
b10001000100010001001000110100 (
b10001000100010001001000110100 U"
b10000000 3"
b10000000 h
b10000000 n
b10000 m
1a
#80
0a
#85
b10000000 n
b10000 m
b10000000 h
b10000000 3"
1a
#90
0a
#95
b10000000 3"
b10000000 h
b10000000 n
b10000 m
1a
#100
b10001000100010001001000110100 (
b10001000100010001001000110100 U"
b10000 ,"
b10000 G"
b10000 ]"
b0 b
b0 H"
b0xxxxxxxx `
b0xxxxxxxx J"
0a
1c
#105
b0 (
b0 U"
b0 2
b0 p
b0 5"
b0 I"
b0 K"
b10000 ]"
b10000 G"
b10000 ,"
1a
#110
0a
#115
b10000 ,"
b10000 G"
b10000 ]"
1a
#120
0a
#125
b10000 ]"
b10000 G"
b10000 ,"
1a
#130
0a
b11111111111111111111111111111111111111111111111111111111111111111111111111111111111111111111111111111111111111111111111111111111111111111111111111111111111111111111111111111111111111111111111111111111111111111111111111111111111111111111111111111111111111111111111111111111111111111111111111111111111111111111111111111111111111111111111111111111111111111111111111111111111111111111111100010001000100010001000100010001001000100010001000100010001000100011001100110011001100110011001101000100010001000100010001000100 b
b11111111111111111111111111111111111111111111111111111111111111111111111111111111111111111111111111111111111111111111111111111111111111111111111111111111111111111111111111111111111111111111111111111111111111111111111111111111111111111111111111111111111111111111111111111111111111111111111111111111111111111111111111111111111111111111111111111111111111111111111111111111111111111111111100010001000100010001000100010001001000100010001000100010001000100011001100110011001100110011001101000100010001000100010001000100 H"
b100011 `
b100011 J"
0c
#135
b11111111111111111111111111111111111111111111111111111111111111111111111111111111111111111111111111111111111111111111111111111111111111111111111111111111111111111111111111111111111111111111111111111111111111111111111111111111111111111111111111111111111111111111111111111111111111111111111111111111111111111111111111111111111111111111111111111111111111111111111111111111111111111111111100010001000100010001000100010001001000100010001000100010001000100011001100110011001100110011001101000100010001000100010001000100 2
b11111111111111111111111111111111111111111111111111111111111111111111111111111111111111111111111111111111111111111111111111111111111111111111111111111111111111111111111111111111111111111111111111111111111111111111111111111111111111111111111111111111111111111111111111111111111111111111111111111111111111111111111111111111111111111111111111111111111111111111111111111111111111111111111100010001000100010001000100010001001000100010001000100010001000100011001100110011001100110011001101000100010001000100010001000100 p
b11111111111111111111111111111111111111111111111111111111111111111111111111111111111111111111111111111111111111111111111111111111111111111111111111111111111111111111111111111111111111111111111111111111111111111111111111111111111111111111111111111111111111111111111111111111111111111111111111111111111111111111111111111111111111111111111111111111111111111111111111111111111111111111111100010001000100010001000100010001001000100010001000100010001000100011001100110011001100110011001101000100010001000100010001000100 5"
b11111111111111111111111111111111111111111111111111111111111111111111111111111111111111111111111111111111111111111111111111111111111111111111111111111111111111111111111111111111111111111111111111111111111111111111111111111111111111111111111111111111111111111111111111111111111111111111111111111111111111111111111111111111111111111111111111111111111111111111111111111111111111111111111100010001000100010001000100010001001000100010001000100010001000100011001100110011001100110011001101000100010001000100010001000100 I"
b11111111111111111111111111111111111111111111111111111111111111111111111111111111111111111111111111111111111111111111111111111111111111111111111111111111111111111111111111111111111111111111111111111111111111111111111111111111111111111111111111111111111111111111111111111111111111111111111111111111111111111111111111111111111111111111111111111111111111111111111111111111111111111111111100010001000100010001000100010001001000100010001000100010001000100011001100110011001100110011001101000100010001000100010001000100 K"
b10000000 n
b10000 m
b10000000 h
b10000000 3"
1a
#140
0a
#145
b10000000 3"
b10000000 h
b10000000 n
b10000 m
1a
#150
0a
#155
b10001000100010001000100010001 #
b10001000100010001000100010001 Z"
b100010001000100010001000100010 $
b100010001000100010001000100010 Y"
b110011001100110011001100110011 %
b110011001100110011001100110011 X"
b1000100010001000100010001000100 &
b1000100010001000100010001000100 W"
b10000000 n
b10000 m
b10000000 h
b10000000 3"
1a
#160
0a
#165
b10000000 3"
b10000000 h
b10000000 n
b10000 m
1a
#170
0a
#175
b10000000 n
b10000 m
b10000000 h
b10000000 3"
1a
#180
b10001000100010001000100010001 #
b10001000100010001000100010001 Z"
b100010001000100010001000100010 $
b100010001000100010001000100010 Y"
b110011001100110011001100110011 %
b110011001100110011001100110011 X"
b1000100010001000100010001000100 &
b1000100010001000100010001000100 W"
b10000 ]"
b10000 G"
b10000 ,"
b0 b
b0 H"
b0xxxxxxxx `
b0xxxxxxxx J"
0a
1c
#185
b0 #
b0 Z"
b0 $
b0 Y"
b0 %
b0 X"
b0 &
b0 W"
b0 2
b0 p
b0 5"
b0 I"
b0 K"
b10000 ,"
b10000 G"
b10000 ]"
1a
#190
0a
#195
b10000 ]"
b10000 G"
b10000 ,"
1a
#200
0a
#205
b10000 ,"
b10000 G"
b10000 ]"
1a
#210
0a
b11111111111111111111111111111111111111111111111111111111111111111111111111111111111111111111111111111111111111111111111111111111111111111111111111111111111111111111111111111111111111111111111111111111111111111111111111111111111111111111111111111111111111111111111111111111111111111111111111111111111111111111111111111111111111111111111111111111111111111111111111111111111111111111111111111111111111111111111111111111111111111111111111111111111111111111111111111111111111111111111111111111111111111111111111111111 b
b11111111111111111111111111111111111111111111111111111111111111111111111111111111111111111111111111111111111111111111111111111111111111111111111111111111111111111111111111111111111111111111111111111111111111111111111111111111111111111111111111111111111111111111111111111111111111111111111111111111111111111111111111111111111111111111111111111111111111111111111111111111111111111111111111111111111111111111111111111111111111111111111111111111111111111111111111111111111111111111111111111111111111111111111111111111 H"
b1000001 `
b1000001 J"
0c
#215
b11111111111111111111111111111111111111111111111111111111111111111111111111111111111111111111111111111111111111111111111111111111111111111111111111111111111111111111111111111111111111111111111111111111111111111111111111111111111111111111111111111111111111111111111111111111111111111111111111111111111111111111111111111111111111111111111111111111111111111111111111111111111111111111111111111111111111111111111111111111111111111111111111111111111111111111111111111111111111111111111111111111111111111111111111111111 2
b11111111111111111111111111111111111111111111111111111111111111111111111111111111111111111111111111111111111111111111111111111111111111111111111111111111111111111111111111111111111111111111111111111111111111111111111111111111111111111111111111111111111111111111111111111111111111111111111111111111111111111111111111111111111111111111111111111111111111111111111111111111111111111111111111111111111111111111111111111111111111111111111111111111111111111111111111111111111111111111111111111111111111111111111111111111 p
b11111111111111111111111111111111111111111111111111111111111111111111111111111111111111111111111111111111111111111111111111111111111111111111111111111111111111111111111111111111111111111111111111111111111111111111111111111111111111111111111111111111111111111111111111111111111111111111111111111111111111111111111111111111111111111111111111111111111111111111111111111111111111111111111111111111111111111111111111111111111111111111111111111111111111111111111111111111111111111111111111111111111111111111111111111111 5"
b11111111111111111111111111111111111111111111111111111111111111111111111111111111111111111111111111111111111111111111111111111111111111111111111111111111111111111111111111111111111111111111111111111111111111111111111111111111111111111111111111111111111111111111111111111111111111111111111111111111111111111111111111111111111111111111111111111111111111111111111111111111111111111111111111111111111111111111111111111111111111111111111111111111111111111111111111111111111111111111111111111111111111111111111111111111 I"
b11111111111111111111111111111111111111111111111111111111111111111111111111111111111111111111111111111111111111111111111111111111111111111111111111111111111111111111111111111111111111111111111111111111111111111111111111111111111111111111111111111111111111111111111111111111111111111111111111111111111111111111111111111111111111111111111111111111111111111111111111111111111111111111111111111111111111111111111111111111111111111111111111111111111111111111111111111111111111111111111111111111111111111111111111111111 K"
b10000 ]"
b10000000 3"
b10000000 h
b10000000 n
b10000 m
1a
#220
0a
#225
b10000000 n
b10000 m
b10000000 h
b10000000 3"
b10000 ]"
1a
#230
0a
#235
b11111111111111111111111111111111 )
b11111111111111111111111111111111 T"
b11111111111111111111111111111111 *
b11111111111111111111111111111111 S"
b11111111111111111111111111111111 +
b11111111111111111111111111111111 R"
b11111111111111111111111111111111 ,
b11111111111111111111111111111111 Q"
b11111111111111111111111111111111 -
b11111111111111111111111111111111 P"
b11111111111111111111111111111111 .
b11111111111111111111111111111111 O"
b11111111111111111111111111111111 /
b11111111111111111111111111111111 N"
b11111111111111111111111111111111 !
b11111111111111111111111111111111 \"
b11111111111111111111111111111111 "
b11111111111111111111111111111111 ["
b11111111111111111111111111111111 #
b11111111111111111111111111111111 Z"
b11111111111111111111111111111111 $
b11111111111111111111111111111111 Y"
b11111111111111111111111111111111 %
b11111111111111111111111111111111 X"
b11111111111111111111111111111111 &
b11111111111111111111111111111111 W"
b11111111111111111111111111111111 '
b11111111111111111111111111111111 V"
b11111111111111111111111111111111 (
b11111111111111111111111111111111 U"
b11111111111111111111111111111111 0
b11111111111111111111111111111111 M"
b10000 ]"
b10000000 3"
b10000000 h
b10000000 n
b10000 m
1a
#240
0a
#245
b10000000 n
b10000 m
b10000000 h
b10000000 3"
b10000 ]"
1a
#250
0a
#255
b10000 ]"
b10000000 3"
b10000000 h
b10000000 n
b10000 m
1a
#260
b11111111111111111111111111111111 )
b11111111111111111111111111111111 T"
b11111111111111111111111111111111 *
b11111111111111111111111111111111 S"
b11111111111111111111111111111111 +
b11111111111111111111111111111111 R"
b11111111111111111111111111111111 ,
b11111111111111111111111111111111 Q"
b11111111111111111111111111111111 -
b11111111111111111111111111111111 P"
b11111111111111111111111111111111 .
b11111111111111111111111111111111 O"
b11111111111111111111111111111111 /
b11111111111111111111111111111111 N"
b11111111111111111111111111111111 !
b11111111111111111111111111111111 \"
b11111111111111111111111111111111 "
b11111111111111111111111111111111 ["
b11111111111111111111111111111111 #
b11111111111111111111111111111111 Z"
b11111111111111111111111111111111 $
b11111111111111111111111111111111 Y"
b11111111111111111111111111111111 %
b11111111111111111111111111111111 X"
b11111111111111111111111111111111 &
b11111111111111111111111111111111 W"
b11111111111111111111111111111111 '
b11111111111111111111111111111111 V"
b11111111111111111111111111111111 (
b11111111111111111111111111111111 U"
b11111111111111111111111111111111 0
b11111111111111111111111111111111 M"
b10000 ,"
b10000 G"
b10000 ]"
b0 b
b0 H"
b0xxxxxxxx `
b0xxxxxxxx J"
0a
1c
#265
b0 )
b0 T"
b0 *
b0 S"
b0 +
b0 R"
b0 ,
b0 Q"
b0 -
b0 P"
b0 .
b0 O"
b0 /
b0 N"
b0 !
b0 \"
b0 "
b0 ["
b0 #
b0 Z"
b0 $
b0 Y"
b0 %
b0 X"
b0 &
b0 W"
b0 '
b0 V"
b0 (
b0 U"
b0 0
b0 M"
b0 2
b0 p
b0 5"
b0 I"
b0 K"
b10000 ]"
b10000 G"
b10000 ,"
1a
#270
0a
#275
b10000 ,"
b10000 G"
b10000 ]"
1a
#280
0a
#285
b10000 ]"
b10000 G"
b10000 ,"
1a
#290
0a
b11111111111111111111111111111111111111111111111111111111111111111111111111111111111111111111111111111111111111111111111111111111111111111111111111111111111111111111111111111111111111111111111111111111111111111111111111111111111111111111111111111111111111111111111111111111111111111111111111111111111111111111111111111111111111111111111111111111111111111111111111111111111111111111111111111111111111111111111111111111111111111111111111111111111111111111111111111111111111111111111111111111111111111111111111111111 b
b11111111111111111111111111111111111111111111111111111111111111111111111111111111111111111111111111111111111111111111111111111111111111111111111111111111111111111111111111111111111111111111111111111111111111111111111111111111111111111111111111111111111111111111111111111111111111111111111111111111111111111111111111111111111111111111111111111111111111111111111111111111111111111111111111111111111111111111111111111111111111111111111111111111111111111111111111111111111111111111111111111111111111111111111111111111 H"
b1 _
b1 4"
0c
#295
b11111111111111111111111111111111111111111111111111111111111111111111111111111111111111111111111111111111111111111111111111111111111111111111111111111111111111111111111111111111111111111111111111111111111111111111111111111111111111111111111111111111111111111111111111111111111111111111111111111111111111111111111111111111111111111111111111111111111111111111111111111111111111111111111111111111111111111111111111111111111111111111111111111111111111111111111111111111111111111111111111111111111111111111111111111111 2
b11111111111111111111111111111111111111111111111111111111111111111111111111111111111111111111111111111111111111111111111111111111111111111111111111111111111111111111111111111111111111111111111111111111111111111111111111111111111111111111111111111111111111111111111111111111111111111111111111111111111111111111111111111111111111111111111111111111111111111111111111111111111111111111111111111111111111111111111111111111111111111111111111111111111111111111111111111111111111111111111111111111111111111111111111111111 p
b11111111111111111111111111111111111111111111111111111111111111111111111111111111111111111111111111111111111111111111111111111111111111111111111111111111111111111111111111111111111111111111111111111111111111111111111111111111111111111111111111111111111111111111111111111111111111111111111111111111111111111111111111111111111111111111111111111111111111111111111111111111111111111111111111111111111111111111111111111111111111111111111111111111111111111111111111111111111111111111111111111111111111111111111111111111 5"
b11111111111111111111111111111111111111111111111111111111111111111111111111111111111111111111111111111111111111111111111111111111111111111111111111111111111111111111111111111111111111111111111111111111111111111111111111111111111111111111111111111111111111111111111111111111111111111111111111111111111111111111111111111111111111111111111111111111111111111111111111111111111111111111111111111111111111111111111111111111111111111111111111111111111111111111111111111111111111111111111111111111111111111111111111111111 I"
b11111111111111111111111111111111111111111111111111111111111111111111111111111111111111111111111111111111111111111111111111111111111111111111111111111111111111111111111111111111111111111111111111111111111111111111111111111111111111111111111111111111111111111111111111111111111111111111111111111111111111111111111111111111111111111111111111111111111111111111111111111111111111111111111111111111111111111111111111111111111111111111111111111111111111111111111111111111111111111111111111111111111111111111111111111111 K"
b10000000 n
b10000 m
b10000000 h
b10000000 3"
1a
#300
0a
#305
b10000000 3"
b10000000 h
b10000000 n
b10000 m
1a
#310
0a
#315
b11111111111111111111111111111111 :
b11111111111111111111111111111111 ?"
b10000000 n
b10000 m
b10000000 h
b10000000 3"
1a
#320
0a
#325
b10000000 3"
b10000000 h
b10000000 n
b10000 m
1a
#330
0a
#335
b10000000 n
b10000 m
b10000000 h
b10000000 3"
1a
#340
b11111111111111111111111111111111 :
b11111111111111111111111111111111 ?"
b10000 ]"
b10000 G"
b10000 ,"
b0 b
b0 H"
b0xxxxxxxx _
b0xxxxxxxx 4"
0a
1c
#345
b0 :
b0 ?"
b0 2
b0 p
b0 5"
b0 I"
b0 K"
b10000 ,"
b10000 G"
b10000 ]"
1a
#350
0a
#355
b10000 ]"
b10000 G"
b10000 ,"
1a
#360
0a
#365
b10000 ,"
b10000 G"
b10000 ]"
1a
#370
0a
b11111111111111111111111111111111111111111111111111111111111111111111111111111111111111111111111111111111111111111111111111111111111111111111111111111111111111111111111111111111111111111111111111111111111111111111111111111111111111111111111111111111111111111111111111111111111111111111111111111111111111111111111111111111111111111111111111111111111111111111111111111111111111111111111111111111111111111111111111111111111111111111111111111111111111111111111111111111111111111111111111111111111111111111111111111111 b
b11111111111111111111111111111111111111111111111111111111111111111111111111111111111111111111111111111111111111111111111111111111111111111111111111111111111111111111111111111111111111111111111111111111111111111111111111111111111111111111111111111111111111111111111111111111111111111111111111111111111111111111111111111111111111111111111111111111111111111111111111111111111111111111111111111111111111111111111111111111111111111111111111111111111111111111111111111111111111111111111111111111111111111111111111111111 H"
b100001 _
b100001 4"
0c
